  [
    {
      "name": "Silver",
      "address": "10 Royston way ",
      "expiry_date": "10 Nov 2018",
      "status": "Created"
       },
    {
      "name": "Gold",
      "address": "herschel road ",
      "expiry_date": "10 Nov 2018",
      "status": "Failed"
    },
    {
      "name": "Black",
      "address": "spring grove road",
      "expiry_date": "10 Nov 2018",
      "status": "Pending"
    },
      {
      "name": "red",
      "address": "Bath road",
      "expiry_date": "10 Nov 2018",
      "status": "Active"
    },
      {
      "name": "white",
      "address": "priory road",
      "expiry_date": "10 Nov 2018",
      "status": "Active"
    }
  ]

